<?xml version="1.0" encoding="UTF-8" standalone="no"?>
<!-- Created with Inkscape (http://www.inkscape.org/) -->

<svg
   xmlns:dc="http://purl.org/dc/elements/1.1/"
   xmlns:cc="http://creativecommons.org/ns#"
   xmlns:rdf="http://www.w3.org/1999/02/22-rdf-syntax-ns#"
   xmlns:svg="http://www.w3.org/2000/svg"
   xmlns="http://www.w3.org/2000/svg"
   xmlns:sodipodi="http://sodipodi.sourceforge.net/DTD/sodipodi-0.dtd"
   xmlns:inkscape="http://www.inkscape.org/namespaces/inkscape"
   version="1.1"
   id="svg2"
   xml:space="preserve"
   width="93.979301"
   height="93.979301"
   viewBox="0 0 93.979301 93.979301"
   sodipodi:docname="mu-white.svg"
   inkscape:version="0.92.3 (unknown)"><metadata
     id="metadata8"><rdf:RDF><cc:Work
         rdf:about=""><dc:format>image/svg+xml</dc:format><dc:type
           rdf:resource="http://purl.org/dc/dcmitype/StillImage" /><dc:title></dc:title></cc:Work></rdf:RDF></metadata><defs
     id="defs6"><clipPath
       clipPathUnits="userSpaceOnUse"
       id="clipPath20"><path
         d="M 0,0 H 114 V 114 H 0 Z"
         id="path18"
         inkscape:connector-curvature="0" /></clipPath><clipPath
       clipPathUnits="userSpaceOnUse"
       id="clipPath30"><path
         d="m 1133.86,566.93 c 0,150.363 -59.75,294.55 -166.063,400.867 C 861.48,1074.11 717.293,1133.86 566.93,1133.86 416.563,1133.86 272.375,1074.11 166.059,967.797 59.7422,861.48 0,717.293 0,566.93 0,416.563 59.7422,272.375 166.059,166.059 272.375,59.7422 416.563,0 566.93,0 717.293,0 861.48,59.7422 967.797,166.059 1074.11,272.375 1133.86,416.563 1133.86,566.93 Z"
         id="path28"
         inkscape:connector-curvature="0" /></clipPath><clipPath
       clipPathUnits="userSpaceOnUse"
       id="clipPath40"><path
         d="m 1133.86,566.93 c 0,150.363 -59.75,294.55 -166.063,400.867 C 861.48,1074.11 717.293,1133.86 566.93,1133.86 416.563,1133.86 272.375,1074.11 166.059,967.797 59.7422,861.48 0,717.293 0,566.93 0,416.563 59.7422,272.375 166.059,166.059 272.375,59.7422 416.563,0 566.93,0 717.293,0 861.48,59.7422 967.797,166.059 1074.11,272.375 1133.86,416.563 1133.86,566.93 Z"
         id="path38"
         inkscape:connector-curvature="0" /></clipPath><clipPath
       clipPathUnits="userSpaceOnUse"
       id="clipPath46"><path
         d="m 1049.5,1125.33 c -105.777,76.7 -233.75,118.76 -366.074,118.76 -165.403,0 -324.012,-65.71 -440.961,-182.66 C 125.516,944.477 59.8008,785.867 59.8008,620.465 59.8008,455.063 125.516,296.453 242.465,179.504 343.805,78.1641 476.426,15.2969 617.645,0.316406 Z"
         id="path44"
         inkscape:connector-curvature="0" /></clipPath><clipPath
       clipPathUnits="userSpaceOnUse"
       id="clipPath58"><path
         d="m 1133.86,566.93 c 0,150.363 -59.75,294.55 -166.063,400.867 C 861.48,1074.11 717.293,1133.86 566.93,1133.86 416.563,1133.86 272.375,1074.11 166.059,967.797 59.7422,861.48 0,717.293 0,566.93 0,416.563 59.7422,272.375 166.059,166.059 272.375,59.7422 416.563,0 566.93,0 717.293,0 861.48,59.7422 967.797,166.059 1074.11,272.375 1133.86,416.563 1133.86,566.93 Z"
         id="path56"
         inkscape:connector-curvature="0" /></clipPath></defs><sodipodi:namedview
     pagecolor="#ffffff"
     bordercolor="#666666"
     borderopacity="1"
     objecttolerance="10"
     gridtolerance="10"
     guidetolerance="10"
     inkscape:pageopacity="0"
     inkscape:pageshadow="2"
     inkscape:window-width="1920"
     inkscape:window-height="1044"
     id="namedview4"
     showgrid="false"
     fit-margin-top="0"
     fit-margin-left="0"
     fit-margin-right="0"
     fit-margin-bottom="0"
     inkscape:zoom="3.3293072"
     inkscape:cx="80.18293"
     inkscape:cy="51.473724"
     inkscape:window-x="0"
     inkscape:window-y="1116"
     inkscape:window-maximized="1"
     inkscape:current-layer="g10" /><g
     id="g10"
     inkscape:groupmode="layer"
     inkscape:label="mu-white"
     transform="matrix(1.3333333,0,0,-1.3333333,0,93.979303)"><g
       id="g24"
       transform="scale(0.0621633)"
       style="fill:none;stroke:#ffffff;stroke-opacity:1;stroke-width:24.1299937;stroke-miterlimit:4;stroke-dasharray:none"><g
         id="g26"
         clip-path="url(#clipPath30)"
         style="fill:none;stroke:#ffffff;stroke-opacity:1;stroke-width:24.1299937;stroke-miterlimit:4;stroke-dasharray:none"><path
           d="m 1133.86,566.93 c 0,150.363 -59.75,294.55 -166.063,400.867 C 861.48,1074.11 717.293,1133.86 566.93,1133.86 416.563,1133.86 272.375,1074.11 166.059,967.797 59.7422,861.48 0,717.293 0,566.93 0,416.563 59.7422,272.375 166.059,166.059 272.375,59.7422 416.563,0 566.93,0 717.293,0 861.48,59.7422 967.797,166.059 1074.11,272.375 1133.86,416.563 1133.86,566.93"
           style="fill:none;fill-opacity:1;fill-rule:nonzero;stroke:#ffffff;stroke-opacity:1;stroke-width:24.1299937;stroke-miterlimit:4;stroke-dasharray:none"
           id="path32"
           inkscape:connector-curvature="0" /></g></g><g
       id="g34"
       transform="scale(0.0621633)"><g
         id="g36"
         clip-path="url(#clipPath40)"><g
           id="g42"
           clip-path="url(#clipPath46)"><path
             d="m 694.449,464.559 c 2.395,12.562 12.02,40.824 17.731,54.644 l 99.562,248.094 c 12.664,32.031 26.856,65.949 35.047,92.957 h 6.91 c -1.09,-34.547 0.438,-72.859 2.121,-141.32 l 4.332,-206.012 c 0.512,-27.637 -6.992,-40.828 -32.746,-40.828 l -1.058,-7.535 h 99.867 l 1.058,7.535 c -8.793,0 -15.625,5.027 -16.324,35.801 l -6.926,357.382 c -0.316,20.098 13.836,31.403 29.536,31.403 l 1.062,7.539 H 814.027 C 811.988,894.168 805.656,875.953 800.84,864.02 L 707.98,627.859 C 696.117,597.086 676.945,545.582 671.895,518.574 h -6.911 c 2.539,27.008 -2.156,78.512 -5.367,109.285 L 633.141,864.02 c -1.461,11.933 -2.672,30.148 -1.887,40.199 H 510.66 l -1.058,-7.539 c 15.703,0 26.675,-11.305 20.711,-31.403 L 422.926,507.895 c -9.348,-30.774 -17.594,-35.801 -26.387,-35.801 l -1.059,-7.535 h 99.868 l 1.058,7.535 c -25.754,0 -29.551,13.191 -21.269,40.828 l 62.242,206.012 c 20.93,68.461 33.223,106.773 41.844,141.32 h 6.91 c 0.601,-27.008 5.254,-60.926 8.918,-92.957 l 29.824,-248.094 c 1.828,-13.82 3.508,-42.082 2.371,-54.644"
             style="fill:#ffffff;fill-opacity:1;fill-rule:nonzero;stroke:none"
             id="path48"
             inkscape:connector-curvature="0" /><path
             d="m 384.438,628.23 c -2.825,-20.097 -18.231,-31.402 -36.446,-31.402 l -1.058,-7.535 h 114.308 l 1.063,7.535 c -18.215,0 -30.446,11.305 -27.621,31.402 l 50.847,361.778 c 2.824,20.102 18.231,31.402 36.446,31.402 l 1.062,7.54 H 408.727 l -1.059,-7.54 c 18.215,0 30.441,-11.3 27.617,-31.402"
             style="fill:#ffffff;fill-opacity:1;fill-rule:nonzero;stroke:none"
             id="path50"
             inkscape:connector-curvature="0" /></g></g></g><g
       id="g52"
       transform="scale(0.0621633)"><g
         id="g54"
         clip-path="url(#clipPath58)"><path
           d="m 161.008,520.605 h 187.09 L 617.645,0.316406 1049.5,1125.33"
           style="fill:none;stroke:#ffffff;stroke-width:7;stroke-linecap:round;stroke-linejoin:round;stroke-miterlimit:10;stroke-dasharray:none;stroke-opacity:1"
           id="path60"
           inkscape:connector-curvature="0" /><path
           d="M 348.098,520.605 H 254.551 L 524.102,0.316406 h 93.543"
           style="fill:#ffffff;fill-opacity:1;fill-rule:nonzero;stroke:none"
           id="path62"
           inkscape:connector-curvature="0" /></g></g></g></svg>